Name,Sport,Date,Start time,Duration,Total distance (mi),Average heart rate (bpm),Average speed (mi/h),Max speed (mi/h),Average pace (min/mi),Max pace (min/mi),Calories,Fat percentage of calories(%),Average cadence (rpm),Average stride length (in),Running index,Training load,Ascent (ft),Descent (ft),Notes,Height (ft in),Weight (lbs),HR max,HR sit,VO2max,
Mike Macpherson,OTHER_INDOOR,28-04-2019,11:41:58,00:35:47,0.00,132,,,,,431,16,,,,,,,,6 1,189.6,,,,
Sample rate,Time,HR (bpm),Speed (mi/h),Pace (min/mi),Cadence,Altitude (ft),Stride length (in),Distances (ft),Temperatures (F),Power (W),
1,00:00:00,,,,,,,,,,
,00:00:01,87,,,,,,,,,
,00:00:02,87,,,,,,,,,
,00:00:03,86,,,,,,,,,
,00:00:04,86,,,,,,,,,
,00:00:05,85,,,,,,,,,
,00:00:06,84,,,,,,,,,
,00:00:07,84,,,,,,,,,
,00:00:08,84,,,,,,,,,
,00:00:09,85,,,,,,,,,
,00:00:10,85,,,,,,,,,
,00:00:11,86,,,,,,,,,
,00:00:12,87,,,,,,,,,
,00:00:13,87,,,,,,,,,
,00:00:14,87,,,,,,,,,
,00:00:15,88,,,,,,,,,
,00:00:16,89,,,,,,,,,
,00:00:17,90,,,,,,,,,
,00:00:18,91,,,,,,,,,
,00:00:19,91,,,,,,,,,
,00:00:20,92,,,,,,,,,
,00:00:21,91,,,,,,,,,
,00:00:22,92,,,,,,,,,
,00:00:23,92,,,,,,,,,
,00:00:24,93,,,,,,,,,
,00:00:25,93,,,,,,,,,
,00:00:26,93,,,,,,,,,
,00:00:27,94,,,,,,,,,
,00:00:28,94,,,,,,,,,
,00:00:29,95,,,,,,,,,
,00:00:30,95,,,,,,,,,
,00:00:31,95,,,,,,,,,
,00:00:32,94,,,,,,,,,
,00:00:33,94,,,,,,,,,
,00:00:34,94,,,,,,,,,
,00:00:35,94,,,,,,,,,
,00:00:36,93,,,,,,,,,
,00:00:37,92,,,,,,,,,
,00:00:38,91,,,,,,,,,
,00:00:39,90,,,,,,,,,
,00:00:40,89,,,,,,,,,
,00:00:41,88,,,,,,,,,
,00:00:42,87,,,,,,,,,
,00:00:43,87,,,,,,,,,
,00:00:44,87,,,,,,,,,
,00:00:45,88,,,,,,,,,
,00:00:46,89,,,,,,,,,
,00:00:47,89,,,,,,,,,
,00:00:48,90,,,,,,,,,
,00:00:49,90,,,,,,,,,
,00:00:50,90,,,,,,,,,
,00:00:51,90,,,,,,,,,
,00:00:52,89,,,,,,,,,
,00:00:53,88,,,,,,,,,
,00:00:54,87,,,,,,,,,
,00:00:55,87,,,,,,,,,
,00:00:56,87,,,,,,,,,
,00:00:57,86,,,,,,,,,
,00:00:58,86,,,,,,,,,
,00:00:59,86,,,,,,,,,
,00:01:00,86,,,,,,,,,
,00:01:01,86,,,,,,,,,
,00:01:02,86,,,,,,,,,
,00:01:03,87,,,,,,,,,
,00:01:04,87,,,,,,,,,
,00:01:05,87,,,,,,,,,
,00:01:06,87,,,,,,,,,
,00:01:07,86,,,,,,,,,
,00:01:08,86,,,,,,,,,
,00:01:09,86,,,,,,,,,
,00:01:10,86,,,,,,,,,
,00:01:11,86,,,,,,,,,
,00:01:12,87,,,,,,,,,
,00:01:13,88,,,,,,,,,
,00:01:14,89,,,,,,,,,
,00:01:15,89,,,,,,,,,
,00:01:16,90,,,,,,,,,
,00:01:17,90,,,,,,,,,
,00:01:18,91,,,,,,,,,
,00:01:19,92,,,,,,,,,
,00:01:20,92,,,,,,,,,
,00:01:21,93,,,,,,,,,
,00:01:22,93,,,,,,,,,
,00:01:23,95,,,,,,,,,
,00:01:24,95,,,,,,,,,
,00:01:25,97,,,,,,,,,
,00:01:26,99,,,,,,,,,
,00:01:27,99,,,,,,,,,
,00:01:28,101,,,,,,,,,
,00:01:29,103,,,,,,,,,
,00:01:30,105,,,,,,,,,
,00:01:31,106,,,,,,,,,
,00:01:32,108,,,,,,,,,
,00:01:33,110,,,,,,,,,
,00:01:34,111,,,,,,,,,
,00:01:35,112,,,,,,,,,
,00:01:36,113,,,,,,,,,
,00:01:37,115,,,,,,,,,
,00:01:38,115,,,,,,,,,
,00:01:39,116,,,,,,,,,
,00:01:40,118,,,,,,,,,
,00:01:41,119,,,,,,,,,
,00:01:42,120,,,,,,,,,
,00:01:43,121,,,,,,,,,
,00:01:44,122,,,,,,,,,
,00:01:45,123,,,,,,,,,
,00:01:46,123,,,,,,,,,
,00:01:47,124,,,,,,,,,
,00:01:48,124,,,,,,,,,
,00:01:49,124,,,,,,,,,
,00:01:50,124,,,,,,,,,
,00:01:51,125,,,,,,,,,
,00:01:52,126,,,,,,,,,
,00:01:53,126,,,,,,,,,
,00:01:54,126,,,,,,,,,
,00:01:55,127,,,,,,,,,
,00:01:56,127,,,,,,,,,
,00:01:57,128,,,,,,,,,
,00:01:58,128,,,,,,,,,
,00:01:59,129,,,,,,,,,
,00:02:00,129,,,,,,,,,
,00:02:01,130,,,,,,,,,
,00:02:02,130,,,,,,,,,
,00:02:03,130,,,,,,,,,
,00:02:04,130,,,,,,,,,
,00:02:05,131,,,,,,,,,
,00:02:06,132,,,,,,,,,
,00:02:07,132,,,,,,,,,
,00:02:08,133,,,,,,,,,
,00:02:09,133,,,,,,,,,
,00:02:10,134,,,,,,,,,
,00:02:11,134,,,,,,,,,
,00:02:12,135,,,,,,,,,
,00:02:13,135,,,,,,,,,
,00:02:14,135,,,,,,,,,
,00:02:15,135,,,,,,,,,
,00:02:16,136,,,,,,,,,
,00:02:17,136,,,,,,,,,
,00:02:18,136,,,,,,,,,
,00:02:19,136,,,,,,,,,
,00:02:20,137,,,,,,,,,
,00:02:21,138,,,,,,,,,
,00:02:22,137,,,,,,,,,
,00:02:23,137,,,,,,,,,
,00:02:24,138,,,,,,,,,
,00:02:25,138,,,,,,,,,
,00:02:26,138,,,,,,,,,
,00:02:27,138,,,,,,,,,
,00:02:28,138,,,,,,,,,
,00:02:29,138,,,,,,,,,
,00:02:30,139,,,,,,,,,
,00:02:31,139,,,,,,,,,
,00:02:32,139,,,,,,,,,
,00:02:33,139,,,,,,,,,
,00:02:34,139,,,,,,,,,
,00:02:35,139,,,,,,,,,
,00:02:36,139,,,,,,,,,
,00:02:37,139,,,,,,,,,
,00:02:38,139,,,,,,,,,
,00:02:39,139,,,,,,,,,
,00:02:40,140,,,,,,,,,
,00:02:41,140,,,,,,,,,
,00:02:42,140,,,,,,,,,
,00:02:43,139,,,,,,,,,
,00:02:44,139,,,,,,,,,
,00:02:45,140,,,,,,,,,
,00:02:46,140,,,,,,,,,
,00:02:47,140,,,,,,,,,
,00:02:48,140,,,,,,,,,
,00:02:49,140,,,,,,,,,
,00:02:50,140,,,,,,,,,
,00:02:51,140,,,,,,,,,
,00:02:52,140,,,,,,,,,
,00:02:53,140,,,,,,,,,
,00:02:54,140,,,,,,,,,
,00:02:55,140,,,,,,,,,
,00:02:56,140,,,,,,,,,
,00:02:57,140,,,,,,,,,
,00:02:58,140,,,,,,,,,
,00:02:59,140,,,,,,,,,
,00:03:00,141,,,,,,,,,
,00:03:01,141,,,,,,,,,
,00:03:02,141,,,,,,,,,
,00:03:03,141,,,,,,,,,
,00:03:04,141,,,,,,,,,
,00:03:05,140,,,,,,,,,
,00:03:06,140,,,,,,,,,
,00:03:07,140,,,,,,,,,
,00:03:08,139,,,,,,,,,
,00:03:09,139,,,,,,,,,
,00:03:10,138,,,,,,,,,
,00:03:11,138,,,,,,,,,
,00:03:12,138,,,,,,,,,
,00:03:13,138,,,,,,,,,
,00:03:14,138,,,,,,,,,
,00:03:15,138,,,,,,,,,
,00:03:16,137,,,,,,,,,
,00:03:17,137,,,,,,,,,
,00:03:18,137,,,,,,,,,
,00:03:19,137,,,,,,,,,
,00:03:20,137,,,,,,,,,
,00:03:21,137,,,,,,,,,
,00:03:22,137,,,,,,,,,
,00:03:23,137,,,,,,,,,
,00:03:24,137,,,,,,,,,
,00:03:25,137,,,,,,,,,
,00:03:26,137,,,,,,,,,
,00:03:27,137,,,,,,,,,
,00:03:28,137,,,,,,,,,
,00:03:29,136,,,,,,,,,
,00:03:30,136,,,,,,,,,
,00:03:31,136,,,,,,,,,
,00:03:32,136,,,,,,,,,
,00:03:33,136,,,,,,,,,
,00:03:34,136,,,,,,,,,
,00:03:35,136,,,,,,,,,
,00:03:36,135,,,,,,,,,
,00:03:37,135,,,,,,,,,
,00:03:38,135,,,,,,,,,
,00:03:39,135,,,,,,,,,
,00:03:40,134,,,,,,,,,
,00:03:41,134,,,,,,,,,
,00:03:42,134,,,,,,,,,
,00:03:43,134,,,,,,,,,
,00:03:44,134,,,,,,,,,
,00:03:45,134,,,,,,,,,
,00:03:46,133,,,,,,,,,
,00:03:47,133,,,,,,,,,
,00:03:48,133,,,,,,,,,
,00:03:49,132,,,,,,,,,
,00:03:50,132,,,,,,,,,
,00:03:51,131,,,,,,,,,
,00:03:52,131,,,,,,,,,
,00:03:53,131,,,,,,,,,
,00:03:54,130,,,,,,,,,
,00:03:55,129,,,,,,,,,
,00:03:56,128,,,,,,,,,
,00:03:57,128,,,,,,,,,
,00:03:58,127,,,,,,,,,
,00:03:59,127,,,,,,,,,
,00:04:00,127,,,,,,,,,
,00:04:01,126,,,,,,,,,
,00:04:02,125,,,,,,,,,
,00:04:03,124,,,,,,,,,
,00:04:04,123,,,,,,,,,
,00:04:05,122,,,,,,,,,
,00:04:06,121,,,,,,,,,
,00:04:07,120,,,,,,,,,
,00:04:08,120,,,,,,,,,
,00:04:09,119,,,,,,,,,
,00:04:10,120,,,,,,,,,
,00:04:11,119,,,,,,,,,
,00:04:12,118,,,,,,,,,
,00:04:13,116,,,,,,,,,
,00:04:14,115,,,,,,,,,
,00:04:15,114,,,,,,,,,
,00:04:16,114,,,,,,,,,
,00:04:17,114,,,,,,,,,
,00:04:18,113,,,,,,,,,
,00:04:19,113,,,,,,,,,
,00:04:20,113,,,,,,,,,
,00:04:21,113,,,,,,,,,
,00:04:22,113,,,,,,,,,
,00:04:23,112,,,,,,,,,
,00:04:24,111,,,,,,,,,
,00:04:25,110,,,,,,,,,
,00:04:26,110,,,,,,,,,
,00:04:27,111,,,,,,,,,
,00:04:28,111,,,,,,,,,
,00:04:29,112,,,,,,,,,
,00:04:30,112,,,,,,,,,
,00:04:31,113,,,,,,,,,
,00:04:32,112,,,,,,,,,
,00:04:33,112,,,,,,,,,
,00:04:34,112,,,,,,,,,
,00:04:35,112,,,,,,,,,
,00:04:36,111,,,,,,,,,
,00:04:37,111,,,,,,,,,
,00:04:38,110,,,,,,,,,
,00:04:39,110,,,,,,,,,
,00:04:40,110,,,,,,,,,
,00:04:41,110,,,,,,,,,
,00:04:42,110,,,,,,,,,
,00:04:43,110,,,,,,,,,
,00:04:44,111,,,,,,,,,
,00:04:45,110,,,,,,,,,
,00:04:46,110,,,,,,,,,
,00:04:47,109,,,,,,,,,
,00:04:48,108,,,,,,,,,
,00:04:49,108,,,,,,,,,
,00:04:50,108,,,,,,,,,
,00:04:51,108,,,,,,,,,
,00:04:52,108,,,,,,,,,
,00:04:53,108,,,,,,,,,
,00:04:54,108,,,,,,,,,
,00:04:55,108,,,,,,,,,
,00:04:56,109,,,,,,,,,
,00:04:57,108,,,,,,,,,
,00:04:58,108,,,,,,,,,
,00:04:59,108,,,,,,,,,
,00:05:00,108,,,,,,,,,
,00:05:01,108,,,,,,,,,
,00:05:02,109,,,,,,,,,
,00:05:03,110,,,,,,,,,
,00:05:04,110,,,,,,,,,
,00:05:05,111,,,,,,,,,
,00:05:06,112,,,,,,,,,
,00:05:07,113,,,,,,,,,
,00:05:08,114,,,,,,,,,
,00:05:09,115,,,,,,,,,
,00:05:10,116,,,,,,,,,
,00:05:11,117,,,,,,,,,
,00:05:12,118,,,,,,,,,
,00:05:13,119,,,,,,,,,
,00:05:14,120,,,,,,,,,
,00:05:15,121,,,,,,,,,
,00:05:16,121,,,,,,,,,
,00:05:17,122,,,,,,,,,
,00:05:18,122,,,,,,,,,
,00:05:19,123,,,,,,,,,
,00:05:20,123,,,,,,,,,
,00:05:21,124,,,,,,,,,
,00:05:22,124,,,,,,,,,
,00:05:23,125,,,,,,,,,
,00:05:24,125,,,,,,,,,
,00:05:25,125,,,,,,,,,
,00:05:26,125,,,,,,,,,
,00:05:27,126,,,,,,,,,
,00:05:28,126,,,,,,,,,
,00:05:29,127,,,,,,,,,
,00:05:30,127,,,,,,,,,
,00:05:31,127,,,,,,,,,
,00:05:32,127,,,,,,,,,
,00:05:33,128,,,,,,,,,
,00:05:34,128,,,,,,,,,
,00:05:35,128,,,,,,,,,
,00:05:36,129,,,,,,,,,
,00:05:37,129,,,,,,,,,
,00:05:38,129,,,,,,,,,
,00:05:39,130,,,,,,,,,
,00:05:40,130,,,,,,,,,
,00:05:41,130,,,,,,,,,
,00:05:42,131,,,,,,,,,
,00:05:43,131,,,,,,,,,
,00:05:44,131,,,,,,,,,
,00:05:45,132,,,,,,,,,
,00:05:46,132,,,,,,,,,
,00:05:47,133,,,,,,,,,
,00:05:48,133,,,,,,,,,
,00:05:49,133,,,,,,,,,
,00:05:50,134,,,,,,,,,
,00:05:51,135,,,,,,,,,
,00:05:52,135,,,,,,,,,
,00:05:53,135,,,,,,,,,
,00:05:54,136,,,,,,,,,
,00:05:55,136,,,,,,,,,
,00:05:56,136,,,,,,,,,
,00:05:57,137,,,,,,,,,
,00:05:58,137,,,,,,,,,
,00:05:59,137,,,,,,,,,
,00:06:00,137,,,,,,,,,
,00:06:01,137,,,,,,,,,
,00:06:02,137,,,,,,,,,
,00:06:03,137,,,,,,,,,
,00:06:04,138,,,,,,,,,
,00:06:05,138,,,,,,,,,
,00:06:06,138,,,,,,,,,
,00:06:07,138,,,,,,,,,
,00:06:08,138,,,,,,,,,
,00:06:09,139,,,,,,,,,
,00:06:10,139,,,,,,,,,
,00:06:11,139,,,,,,,,,
,00:06:12,139,,,,,,,,,
,00:06:13,138,,,,,,,,,
,00:06:14,139,,,,,,,,,
,00:06:15,140,,,,,,,,,
,00:06:16,140,,,,,,,,,
,00:06:17,140,,,,,,,,,
,00:06:18,141,,,,,,,,,
,00:06:19,141,,,,,,,,,
,00:06:20,141,,,,,,,,,
,00:06:21,141,,,,,,,,,
,00:06:22,141,,,,,,,,,
,00:06:23,142,,,,,,,,,
,00:06:24,142,,,,,,,,,
,00:06:25,142,,,,,,,,,
,00:06:26,142,,,,,,,,,
,00:06:27,142,,,,,,,,,
,00:06:28,142,,,,,,,,,
,00:06:29,142,,,,,,,,,
,00:06:30,142,,,,,,,,,
,00:06:31,142,,,,,,,,,
,00:06:32,142,,,,,,,,,
,00:06:33,142,,,,,,,,,
,00:06:34,143,,,,,,,,,
,00:06:35,143,,,,,,,,,
,00:06:36,141,,,,,,,,,
,00:06:37,142,,,,,,,,,
,00:06:38,142,,,,,,,,,
,00:06:39,143,,,,,,,,,
,00:06:40,144,,,,,,,,,
,00:06:41,144,,,,,,,,,
,00:06:42,144,,,,,,,,,
,00:06:43,144,,,,,,,,,
,00:06:44,144,,,,,,,,,
,00:06:45,144,,,,,,,,,
,00:06:46,144,,,,,,,,,
,00:06:47,144,,,,,,,,,
,00:06:48,143,,,,,,,,,
,00:06:49,143,,,,,,,,,
,00:06:50,143,,,,,,,,,
,00:06:51,143,,,,,,,,,
,00:06:52,143,,,,,,,,,
,00:06:53,143,,,,,,,,,
,00:06:54,143,,,,,,,,,
,00:06:55,143,,,,,,,,,
,00:06:56,143,,,,,,,,,
,00:06:57,142,,,,,,,,,
,00:06:58,142,,,,,,,,,
,00:06:59,142,,,,,,,,,
,00:07:00,142,,,,,,,,,
,00:07:01,142,,,,,,,,,
,00:07:02,142,,,,,,,,,
,00:07:03,142,,,,,,,,,
,00:07:04,142,,,,,,,,,
,00:07:05,142,,,,,,,,,
,00:07:06,142,,,,,,,,,
,00:07:07,142,,,,,,,,,
,00:07:08,143,,,,,,,,,
,00:07:09,143,,,,,,,,,
,00:07:10,143,,,,,,,,,
,00:07:11,142,,,,,,,,,
,00:07:12,143,,,,,,,,,
,00:07:13,142,,,,,,,,,
,00:07:14,143,,,,,,,,,
,00:07:15,142,,,,,,,,,
,00:07:16,142,,,,,,,,,
,00:07:17,142,,,,,,,,,
,00:07:18,142,,,,,,,,,
,00:07:19,142,,,,,,,,,
,00:07:20,142,,,,,,,,,
,00:07:21,141,,,,,,,,,
,00:07:22,141,,,,,,,,,
,00:07:23,140,,,,,,,,,
,00:07:24,140,,,,,,,,,
,00:07:25,140,,,,,,,,,
,00:07:26,139,,,,,,,,,
,00:07:27,138,,,,,,,,,
,00:07:28,138,,,,,,,,,
,00:07:29,136,,,,,,,,,
,00:07:30,136,,,,,,,,,
,00:07:31,135,,,,,,,,,
,00:07:32,135,,,,,,,,,
,00:07:33,134,,,,,,,,,
,00:07:34,134,,,,,,,,,
,00:07:35,133,,,,,,,,,
,00:07:36,133,,,,,,,,,
,00:07:37,133,,,,,,,,,
,00:07:38,132,,,,,,,,,
,00:07:39,132,,,,,,,,,
,00:07:40,131,,,,,,,,,
,00:07:41,131,,,,,,,,,
,00:07:42,130,,,,,,,,,
,00:07:43,129,,,,,,,,,
,00:07:44,129,,,,,,,,,
,00:07:45,128,,,,,,,,,
,00:07:46,128,,,,,,,,,
,00:07:47,127,,,,,,,,,
,00:07:48,128,,,,,,,,,
,00:07:49,127,,,,,,,,,
,00:07:50,127,,,,,,,,,
,00:07:51,126,,,,,,,,,
,00:07:52,126,,,,,,,,,
,00:07:53,126,,,,,,,,,
,00:07:54,125,,,,,,,,,
,00:07:55,125,,,,,,,,,
,00:07:56,124,,,,,,,,,
,00:07:57,124,,,,,,,,,
,00:07:58,124,,,,,,,,,
,00:07:59,124,,,,,,,,,
,00:08:00,125,,,,,,,,,
,00:08:01,125,,,,,,,,,
,00:08:02,125,,,,,,,,,
,00:08:03,124,,,,,,,,,
,00:08:04,123,,,,,,,,,
,00:08:05,123,,,,,,,,,
,00:08:06,122,,,,,,,,,
,00:08:07,122,,,,,,,,,
,00:08:08,122,,,,,,,,,
,00:08:09,122,,,,,,,,,
,00:08:10,121,,,,,,,,,
,00:08:11,120,,,,,,,,,
,00:08:12,120,,,,,,,,,
,00:08:13,119,,,,,,,,,
,00:08:14,118,,,,,,,,,
,00:08:15,117,,,,,,,,,
,00:08:16,116,,,,,,,,,
,00:08:17,115,,,,,,,,,
,00:08:18,114,,,,,,,,,
,00:08:19,114,,,,,,,,,
,00:08:20,114,,,,,,,,,
,00:08:21,115,,,,,,,,,
,00:08:22,116,,,,,,,,,
,00:08:23,116,,,,,,,,,
,00:08:24,116,,,,,,,,,
,00:08:25,116,,,,,,,,,
,00:08:26,116,,,,,,,,,
,00:08:27,116,,,,,,,,,
,00:08:28,115,,,,,,,,,
,00:08:29,114,,,,,,,,,
,00:08:30,113,,,,,,,,,
,00:08:31,112,,,,,,,,,
,00:08:32,112,,,,,,,,,
,00:08:33,112,,,,,,,,,
,00:08:34,113,,,,,,,,,
,00:08:35,114,,,,,,,,,
,00:08:36,114,,,,,,,,,
,00:08:37,114,,,,,,,,,
,00:08:38,115,,,,,,,,,
,00:08:39,115,,,,,,,,,
,00:08:40,116,,,,,,,,,
,00:08:41,116,,,,,,,,,
,00:08:42,117,,,,,,,,,
,00:08:43,117,,,,,,,,,
,00:08:44,117,,,,,,,,,
,00:08:45,118,,,,,,,,,
,00:08:46,118,,,,,,,,,
,00:08:47,119,,,,,,,,,
,00:08:48,120,,,,,,,,,
,00:08:49,120,,,,,,,,,
,00:08:50,121,,,,,,,,,
,00:08:51,121,,,,,,,,,
,00:08:52,122,,,,,,,,,
,00:08:53,123,,,,,,,,,
,00:08:54,123,,,,,,,,,
,00:08:55,124,,,,,,,,,
,00:08:56,124,,,,,,,,,
,00:08:57,125,,,,,,,,,
,00:08:58,125,,,,,,,,,
,00:08:59,126,,,,,,,,,
,00:09:00,126,,,,,,,,,
,00:09:01,127,,,,,,,,,
,00:09:02,127,,,,,,,,,
,00:09:03,128,,,,,,,,,
,00:09:04,128,,,,,,,,,
,00:09:05,128,,,,,,,,,
,00:09:06,129,,,,,,,,,
,00:09:07,129,,,,,,,,,
,00:09:08,130,,,,,,,,,
,00:09:09,130,,,,,,,,,
,00:09:10,130,,,,,,,,,
,00:09:11,131,,,,,,,,,
,00:09:12,131,,,,,,,,,
,00:09:13,131,,,,,,,,,
,00:09:14,132,,,,,,,,,
,00:09:15,132,,,,,,,,,
,00:09:16,133,,,,,,,,,
,00:09:17,133,,,,,,,,,
,00:09:18,134,,,,,,,,,
,00:09:19,134,,,,,,,,,
,00:09:20,135,,,,,,,,,
,00:09:21,135,,,,,,,,,
,00:09:22,136,,,,,,,,,
,00:09:23,136,,,,,,,,,
,00:09:24,136,,,,,,,,,
,00:09:25,137,,,,,,,,,
,00:09:26,137,,,,,,,,,
,00:09:27,137,,,,,,,,,
,00:09:28,138,,,,,,,,,
,00:09:29,138,,,,,,,,,
,00:09:30,138,,,,,,,,,
,00:09:31,139,,,,,,,,,
,00:09:32,139,,,,,,,,,
,00:09:33,139,,,,,,,,,
,00:09:34,140,,,,,,,,,
,00:09:35,140,,,,,,,,,
,00:09:36,140,,,,,,,,,
,00:09:37,140,,,,,,,,,
,00:09:38,141,,,,,,,,,
,00:09:39,141,,,,,,,,,
,00:09:40,141,,,,,,,,,
,00:09:41,141,,,,,,,,,
,00:09:42,142,,,,,,,,,
,00:09:43,142,,,,,,,,,
,00:09:44,142,,,,,,,,,
,00:09:45,142,,,,,,,,,
,00:09:46,143,,,,,,,,,
,00:09:47,141,,,,,,,,,
,00:09:48,142,,,,,,,,,
,00:09:49,141,,,,,,,,,
,00:09:50,141,,,,,,,,,
,00:09:51,140,,,,,,,,,
,00:09:52,141,,,,,,,,,
,00:09:53,142,,,,,,,,,
,00:09:54,142,,,,,,,,,
,00:09:55,141,,,,,,,,,
,00:09:56,142,,,,,,,,,
,00:09:57,141,,,,,,,,,
,00:09:58,143,,,,,,,,,
,00:09:59,143,,,,,,,,,
,00:10:00,144,,,,,,,,,
,00:10:01,144,,,,,,,,,
,00:10:02,145,,,,,,,,,
,00:10:03,145,,,,,,,,,
,00:10:04,146,,,,,,,,,
,00:10:05,146,,,,,,,,,
,00:10:06,146,,,,,,,,,
,00:10:07,146,,,,,,,,,
,00:10:08,147,,,,,,,,,
,00:10:09,147,,,,,,,,,
,00:10:10,147,,,,,,,,,
,00:10:11,147,,,,,,,,,
,00:10:12,148,,,,,,,,,
,00:10:13,147,,,,,,,,,
,00:10:14,148,,,,,,,,,
,00:10:15,148,,,,,,,,,
,00:10:16,148,,,,,,,,,
,00:10:17,148,,,,,,,,,
,00:10:18,148,,,,,,,,,
,00:10:19,148,,,,,,,,,
,00:10:20,147,,,,,,,,,
,00:10:21,148,,,,,,,,,
,00:10:22,148,,,,,,,,,
,00:10:23,148,,,,,,,,,
,00:10:24,148,,,,,,,,,
,00:10:25,148,,,,,,,,,
,00:10:26,148,,,,,,,,,
,00:10:27,147,,,,,,,,,
,00:10:28,147,,,,,,,,,
,00:10:29,147,,,,,,,,,
,00:10:30,146,,,,,,,,,
,00:10:31,146,,,,,,,,,
,00:10:32,146,,,,,,,,,
,00:10:33,146,,,,,,,,,
,00:10:34,146,,,,,,,,,
,00:10:35,146,,,,,,,,,
,00:10:36,146,,,,,,,,,
,00:10:37,146,,,,,,,,,
,00:10:38,146,,,,,,,,,
,00:10:39,146,,,,,,,,,
,00:10:40,146,,,,,,,,,
,00:10:41,146,,,,,,,,,
,00:10:42,146,,,,,,,,,
,00:10:43,146,,,,,,,,,
,00:10:44,146,,,,,,,,,
,00:10:45,146,,,,,,,,,
,00:10:46,146,,,,,,,,,
,00:10:47,146,,,,,,,,,
,00:10:48,146,,,,,,,,,
,00:10:49,146,,,,,,,,,
,00:10:50,146,,,,,,,,,
,00:10:51,146,,,,,,,,,
,00:10:52,146,,,,,,,,,
,00:10:53,145,,,,,,,,,
,00:10:54,145,,,,,,,,,
,00:10:55,145,,,,,,,,,
,00:10:56,145,,,,,,,,,
,00:10:57,144,,,,,,,,,
,00:10:58,144,,,,,,,,,
,00:10:59,144,,,,,,,,,
,00:11:00,143,,,,,,,,,
,00:11:01,143,,,,,,,,,
,00:11:02,143,,,,,,,,,
,00:11:03,142,,,,,,,,,
,00:11:04,142,,,,,,,,,
,00:11:05,142,,,,,,,,,
,00:11:06,142,,,,,,,,,
,00:11:07,141,,,,,,,,,
,00:11:08,141,,,,,,,,,
,00:11:09,141,,,,,,,,,
,00:11:10,140,,,,,,,,,
,00:11:11,140,,,,,,,,,
,00:11:12,139,,,,,,,,,
,00:11:13,139,,,,,,,,,
,00:11:14,139,,,,,,,,,
,00:11:15,138,,,,,,,,,
,00:11:16,138,,,,,,,,,
,00:11:17,137,,,,,,,,,
,00:11:18,136,,,,,,,,,
,00:11:19,136,,,,,,,,,
,00:11:20,135,,,,,,,,,
,00:11:21,134,,,,,,,,,
,00:11:22,134,,,,,,,,,
,00:11:23,133,,,,,,,,,
,00:11:24,133,,,,,,,,,
,00:11:25,133,,,,,,,,,
,00:11:26,133,,,,,,,,,
,00:11:27,132,,,,,,,,,
,00:11:28,132,,,,,,,,,
,00:11:29,132,,,,,,,,,
,00:11:30,132,,,,,,,,,
,00:11:31,131,,,,,,,,,
,00:11:32,131,,,,,,,,,
,00:11:33,130,,,,,,,,,
,00:11:34,130,,,,,,,,,
,00:11:35,129,,,,,,,,,
,00:11:36,129,,,,,,,,,
,00:11:37,129,,,,,,,,,
,00:11:38,128,,,,,,,,,
,00:11:39,128,,,,,,,,,
,00:11:40,128,,,,,,,,,
,00:11:41,128,,,,,,,,,
,00:11:42,127,,,,,,,,,
,00:11:43,126,,,,,,,,,
,00:11:44,126,,,,,,,,,
,00:11:45,125,,,,,,,,,
,00:11:46,124,,,,,,,,,
,00:11:47,124,,,,,,,,,
,00:11:48,124,,,,,,,,,
,00:11:49,124,,,,,,,,,
,00:11:50,124,,,,,,,,,
,00:11:51,124,,,,,,,,,
,00:11:52,124,,,,,,,,,
,00:11:53,124,,,,,,,,,
,00:11:54,123,,,,,,,,,
,00:11:55,122,,,,,,,,,
,00:11:56,122,,,,,,,,,
,00:11:57,122,,,,,,,,,
,00:11:58,121,,,,,,,,,
,00:11:59,120,,,,,,,,,
,00:12:00,120,,,,,,,,,
,00:12:01,120,,,,,,,,,
,00:12:02,120,,,,,,,,,
,00:12:03,121,,,,,,,,,
,00:12:04,121,,,,,,,,,
,00:12:05,121,,,,,,,,,
,00:12:06,120,,,,,,,,,
,00:12:07,120,,,,,,,,,
,00:12:08,119,,,,,,,,,
,00:12:09,118,,,,,,,,,
,00:12:10,117,,,,,,,,,
,00:12:11,116,,,,,,,,,
,00:12:12,115,,,,,,,,,
,00:12:13,115,,,,,,,,,
,00:12:14,115,,,,,,,,,
,00:12:15,116,,,,,,,,,
,00:12:16,117,,,,,,,,,
,00:12:17,117,,,,,,,,,
,00:12:18,118,,,,,,,,,
,00:12:19,119,,,,,,,,,
,00:12:20,119,,,,,,,,,
,00:12:21,119,,,,,,,,,
,00:12:22,120,,,,,,,,,
,00:12:23,120,,,,,,,,,
,00:12:24,121,,,,,,,,,
,00:12:25,121,,,,,,,,,
,00:12:26,122,,,,,,,,,
,00:12:27,122,,,,,,,,,
,00:12:28,123,,,,,,,,,
,00:12:29,123,,,,,,,,,
,00:12:30,124,,,,,,,,,
,00:12:31,125,,,,,,,,,
,00:12:32,125,,,,,,,,,
,00:12:33,126,,,,,,,,,
,00:12:34,126,,,,,,,,,
,00:12:35,127,,,,,,,,,
,00:12:36,127,,,,,,,,,
,00:12:37,128,,,,,,,,,
,00:12:38,128,,,,,,,,,
,00:12:39,129,,,,,,,,,
,00:12:40,129,,,,,,,,,
,00:12:41,130,,,,,,,,,
,00:12:42,130,,,,,,,,,
,00:12:43,130,,,,,,,,,
,00:12:44,131,,,,,,,,,
,00:12:45,131,,,,,,,,,
,00:12:46,132,,,,,,,,,
,00:12:47,132,,,,,,,,,
,00:12:48,132,,,,,,,,,
,00:12:49,133,,,,,,,,,
,00:12:50,133,,,,,,,,,
,00:12:51,134,,,,,,,,,
,00:12:52,134,,,,,,,,,
,00:12:53,135,,,,,,,,,
,00:12:54,135,,,,,,,,,
,00:12:55,136,,,,,,,,,
,00:12:56,135,,,,,,,,,
,00:12:57,136,,,,,,,,,
,00:12:58,136,,,,,,,,,
,00:12:59,137,,,,,,,,,
,00:13:00,137,,,,,,,,,
,00:13:01,137,,,,,,,,,
,00:13:02,138,,,,,,,,,
,00:13:03,138,,,,,,,,,
,00:13:04,139,,,,,,,,,
,00:13:05,139,,,,,,,,,
,00:13:06,139,,,,,,,,,
,00:13:07,140,,,,,,,,,
,00:13:08,140,,,,,,,,,
,00:13:09,141,,,,,,,,,
,00:13:10,141,,,,,,,,,
,00:13:11,142,,,,,,,,,
,00:13:12,142,,,,,,,,,
,00:13:13,142,,,,,,,,,
,00:13:14,142,,,,,,,,,
,00:13:15,142,,,,,,,,,
,00:13:16,143,,,,,,,,,
,00:13:17,144,,,,,,,,,
,00:13:18,143,,,,,,,,,
,00:13:19,144,,,,,,,,,
,00:13:20,144,,,,,,,,,
,00:13:21,144,,,,,,,,,
,00:13:22,144,,,,,,,,,
,00:13:23,146,,,,,,,,,
,00:13:24,145,,,,,,,,,
,00:13:25,145,,,,,,,,,
,00:13:26,144,,,,,,,,,
,00:13:27,145,,,,,,,,,
,00:13:28,145,,,,,,,,,
,00:13:29,145,,,,,,,,,
,00:13:30,145,,,,,,,,,
,00:13:31,146,,,,,,,,,
,00:13:32,146,,,,,,,,,
,00:13:33,146,,,,,,,,,
,00:13:34,144,,,,,,,,,
,00:13:35,144,,,,,,,,,
,00:13:36,145,,,,,,,,,
,00:13:37,145,,,,,,,,,
,00:13:38,146,,,,,,,,,
,00:13:39,146,,,,,,,,,
,00:13:40,147,,,,,,,,,
,00:13:41,147,,,,,,,,,
,00:13:42,147,,,,,,,,,
,00:13:43,147,,,,,,,,,
,00:13:44,148,,,,,,,,,
,00:13:45,148,,,,,,,,,
,00:13:46,148,,,,,,,,,
,00:13:47,148,,,,,,,,,
,00:13:48,148,,,,,,,,,
,00:13:49,149,,,,,,,,,
,00:13:50,148,,,,,,,,,
,00:13:51,148,,,,,,,,,
,00:13:52,148,,,,,,,,,
,00:13:53,148,,,,,,,,,
,00:13:54,148,,,,,,,,,
,00:13:55,149,,,,,,,,,
,00:13:56,149,,,,,,,,,
,00:13:57,149,,,,,,,,,
,00:13:58,149,,,,,,,,,
,00:13:59,149,,,,,,,,,
,00:14:00,149,,,,,,,,,
,00:14:01,149,,,,,,,,,
,00:14:02,149,,,,,,,,,
,00:14:03,149,,,,,,,,,
,00:14:04,149,,,,,,,,,
,00:14:05,149,,,,,,,,,
,00:14:06,149,,,,,,,,,
,00:14:07,148,,,,,,,,,
,00:14:08,148,,,,,,,,,
,00:14:09,148,,,,,,,,,
,00:14:10,148,,,,,,,,,
,00:14:11,147,,,,,,,,,
,00:14:12,147,,,,,,,,,
,00:14:13,147,,,,,,,,,
,00:14:14,147,,,,,,,,,
,00:14:15,147,,,,,,,,,
,00:14:16,147,,,,,,,,,
,00:14:17,147,,,,,,,,,
,00:14:18,146,,,,,,,,,
,00:14:19,146,,,,,,,,,
,00:14:20,147,,,,,,,,,
,00:14:21,146,,,,,,,,,
,00:14:22,146,,,,,,,,,
,00:14:23,146,,,,,,,,,
,00:14:24,146,,,,,,,,,
,00:14:25,146,,,,,,,,,
,00:14:26,146,,,,,,,,,
,00:14:27,146,,,,,,,,,
,00:14:28,146,,,,,,,,,
,00:14:29,146,,,,,,,,,
,00:14:30,146,,,,,,,,,
,00:14:31,146,,,,,,,,,
,00:14:32,146,,,,,,,,,
,00:14:33,146,,,,,,,,,
,00:14:34,146,,,,,,,,,
,00:14:35,146,,,,,,,,,
,00:14:36,146,,,,,,,,,
,00:14:37,146,,,,,,,,,
,00:14:38,145,,,,,,,,,
,00:14:39,145,,,,,,,,,
,00:14:40,145,,,,,,,,,
,00:14:41,145,,,,,,,,,
,00:14:42,144,,,,,,,,,
,00:14:43,144,,,,,,,,,
,00:14:44,144,,,,,,,,,
,00:14:45,144,,,,,,,,,
,00:14:46,143,,,,,,,,,
,00:14:47,143,,,,,,,,,
,00:14:48,142,,,,,,,,,
,00:14:49,142,,,,,,,,,
,00:14:50,141,,,,,,,,,
,00:14:51,141,,,,,,,,,
,00:14:52,141,,,,,,,,,
,00:14:53,140,,,,,,,,,
,00:14:54,140,,,,,,,,,
,00:14:55,139,,,,,,,,,
,00:14:56,139,,,,,,,,,
,00:14:57,138,,,,,,,,,
,00:14:58,138,,,,,,,,,
,00:14:59,137,,,,,,,,,
,00:15:00,137,,,,,,,,,
,00:15:01,137,,,,,,,,,
,00:15:02,136,,,,,,,,,
,00:15:03,136,,,,,,,,,
,00:15:04,135,,,,,,,,,
,00:15:05,135,,,,,,,,,
,00:15:06,135,,,,,,,,,
,00:15:07,135,,,,,,,,,
,00:15:08,135,,,,,,,,,
,00:15:09,134,,,,,,,,,
,00:15:10,134,,,,,,,,,
,00:15:11,134,,,,,,,,,
,00:15:12,134,,,,,,,,,
,00:15:13,133,,,,,,,,,
,00:15:14,133,,,,,,,,,
,00:15:15,133,,,,,,,,,
,00:15:16,132,,,,,,,,,
,00:15:17,132,,,,,,,,,
,00:15:18,132,,,,,,,,,
,00:15:19,132,,,,,,,,,
,00:15:20,132,,,,,,,,,
,00:15:21,132,,,,,,,,,
,00:15:22,131,,,,,,,,,
,00:15:23,131,,,,,,,,,
,00:15:24,130,,,,,,,,,
,00:15:25,129,,,,,,,,,
,00:15:26,128,,,,,,,,,
,00:15:27,128,,,,,,,,,
,00:15:28,127,,,,,,,,,
,00:15:29,127,,,,,,,,,
,00:15:30,127,,,,,,,,,
,00:15:31,127,,,,,,,,,
,00:15:32,127,,,,,,,,,
,00:15:33,127,,,,,,,,,
,00:15:34,126,,,,,,,,,
,00:15:35,126,,,,,,,,,
,00:15:36,126,,,,,,,,,
,00:15:37,126,,,,,,,,,
,00:15:38,125,,,,,,,,,
,00:15:39,125,,,,,,,,,
,00:15:40,125,,,,,,,,,
,00:15:41,125,,,,,,,,,
,00:15:42,125,,,,,,,,,
,00:15:43,125,,,,,,,,,
,00:15:44,125,,,,,,,,,
,00:15:45,125,,,,,,,,,
,00:15:46,125,,,,,,,,,
,00:15:47,125,,,,,,,,,
,00:15:48,125,,,,,,,,,
,00:15:49,125,,,,,,,,,
,00:15:50,125,,,,,,,,,
,00:15:51,125,,,,,,,,,
,00:15:52,124,,,,,,,,,
,00:15:53,124,,,,,,,,,
,00:15:54,124,,,,,,,,,
,00:15:55,124,,,,,,,,,
,00:15:56,124,,,,,,,,,
,00:15:57,124,,,,,,,,,
,00:15:58,124,,,,,,,,,
,00:15:59,124,,,,,,,,,
,00:16:00,123,,,,,,,,,
,00:16:01,123,,,,,,,,,
,00:16:02,123,,,,,,,,,
,00:16:03,123,,,,,,,,,
,00:16:04,124,,,,,,,,,
,00:16:05,124,,,,,,,,,
,00:16:06,124,,,,,,,,,
,00:16:07,125,,,,,,,,,
,00:16:08,126,,,,,,,,,
,00:16:09,126,,,,,,,,,
,00:16:10,127,,,,,,,,,
,00:16:11,127,,,,,,,,,
,00:16:12,128,,,,,,,,,
,00:16:13,129,,,,,,,,,
,00:16:14,130,,,,,,,,,
,00:16:15,130,,,,,,,,,
,00:16:16,131,,,,,,,,,
,00:16:17,131,,,,,,,,,
,00:16:18,132,,,,,,,,,
,00:16:19,132,,,,,,,,,
,00:16:20,132,,,,,,,,,
,00:16:21,133,,,,,,,,,
,00:16:22,133,,,,,,,,,
,00:16:23,134,,,,,,,,,
,00:16:24,133,,,,,,,,,
,00:16:25,134,,,,,,,,,
,00:16:26,135,,,,,,,,,
,00:16:27,135,,,,,,,,,
,00:16:28,135,,,,,,,,,
,00:16:29,136,,,,,,,,,
,00:16:30,136,,,,,,,,,
,00:16:31,137,,,,,,,,,
,00:16:32,137,,,,,,,,,
,00:16:33,137,,,,,,,,,
,00:16:34,138,,,,,,,,,
,00:16:35,138,,,,,,,,,
,00:16:36,139,,,,,,,,,
,00:16:37,139,,,,,,,,,
,00:16:38,139,,,,,,,,,
,00:16:39,140,,,,,,,,,
,00:16:40,140,,,,,,,,,
,00:16:41,140,,,,,,,,,
,00:16:42,141,,,,,,,,,
,00:16:43,141,,,,,,,,,
,00:16:44,141,,,,,,,,,
,00:16:45,142,,,,,,,,,
,00:16:46,142,,,,,,,,,
,00:16:47,142,,,,,,,,,
,00:16:48,142,,,,,,,,,
,00:16:49,142,,,,,,,,,
,00:16:50,143,,,,,,,,,
,00:16:51,143,,,,,,,,,
,00:16:52,144,,,,,,,,,
,00:16:53,144,,,,,,,,,
,00:16:54,144,,,,,,,,,
,00:16:55,144,,,,,,,,,
,00:16:56,144,,,,,,,,,
,00:16:57,145,,,,,,,,,
,00:16:58,145,,,,,,,,,
,00:16:59,145,,,,,,,,,
,00:17:00,145,,,,,,,,,
,00:17:01,145,,,,,,,,,
,00:17:02,146,,,,,,,,,
,00:17:03,146,,,,,,,,,
,00:17:04,146,,,,,,,,,
,00:17:05,146,,,,,,,,,
,00:17:06,146,,,,,,,,,
,00:17:07,146,,,,,,,,,
,00:17:08,146,,,,,,,,,
,00:17:09,147,,,,,,,,,
,00:17:10,147,,,,,,,,,
,00:17:11,147,,,,,,,,,
,00:17:12,147,,,,,,,,,
,00:17:13,147,,,,,,,,,
,00:17:14,148,,,,,,,,,
,00:17:15,148,,,,,,,,,
,00:17:16,148,,,,,,,,,
,00:17:17,148,,,,,,,,,
,00:17:18,148,,,,,,,,,
,00:17:19,148,,,,,,,,,
,00:17:20,148,,,,,,,,,
,00:17:21,148,,,,,,,,,
,00:17:22,149,,,,,,,,,
,00:17:23,149,,,,,,,,,
,00:17:24,149,,,,,,,,,
,00:17:25,149,,,,,,,,,
,00:17:26,150,,,,,,,,,
,00:17:27,150,,,,,,,,,
,00:17:28,150,,,,,,,,,
,00:17:29,150,,,,,,,,,
,00:17:30,150,,,,,,,,,
,00:17:31,150,,,,,,,,,
,00:17:32,150,,,,,,,,,
,00:17:33,150,,,,,,,,,
,00:17:34,150,,,,,,,,,
,00:17:35,150,,,,,,,,,
,00:17:36,150,,,,,,,,,
,00:17:37,150,,,,,,,,,
,00:17:38,151,,,,,,,,,
,00:17:39,151,,,,,,,,,
,00:17:40,151,,,,,,,,,
,00:17:41,151,,,,,,,,,
,00:17:42,151,,,,,,,,,
,00:17:43,151,,,,,,,,,
,00:17:44,151,,,,,,,,,
,00:17:45,151,,,,,,,,,
,00:17:46,151,,,,,,,,,
,00:17:47,151,,,,,,,,,
,00:17:48,151,,,,,,,,,
,00:17:49,151,,,,,,,,,
,00:17:50,150,,,,,,,,,
,00:17:51,150,,,,,,,,,
,00:17:52,150,,,,,,,,,
,00:17:53,150,,,,,,,,,
,00:17:54,149,,,,,,,,,
,00:17:55,149,,,,,,,,,
,00:17:56,149,,,,,,,,,
,00:17:57,149,,,,,,,,,
,00:17:58,149,,,,,,,,,
,00:17:59,149,,,,,,,,,
,00:18:00,149,,,,,,,,,
,00:18:01,148,,,,,,,,,
,00:18:02,148,,,,,,,,,
,00:18:03,148,,,,,,,,,
,00:18:04,148,,,,,,,,,
,00:18:05,148,,,,,,,,,
,00:18:06,148,,,,,,,,,
,00:18:07,148,,,,,,,,,
,00:18:08,148,,,,,,,,,
,00:18:09,148,,,,,,,,,
,00:18:10,148,,,,,,,,,
,00:18:11,148,,,,,,,,,
,00:18:12,148,,,,,,,,,
,00:18:13,148,,,,,,,,,
,00:18:14,148,,,,,,,,,
,00:18:15,148,,,,,,,,,
,00:18:16,148,,,,,,,,,
,00:18:17,148,,,,,,,,,
,00:18:18,148,,,,,,,,,
,00:18:19,147,,,,,,,,,
,00:18:20,147,,,,,,,,,
,00:18:21,147,,,,,,,,,
,00:18:22,147,,,,,,,,,
,00:18:23,147,,,,,,,,,
,00:18:24,147,,,,,,,,,
,00:18:25,147,,,,,,,,,
,00:18:26,146,,,,,,,,,
,00:18:27,146,,,,,,,,,
,00:18:28,146,,,,,,,,,
,00:18:29,146,,,,,,,,,
,00:18:30,145,,,,,,,,,
,00:18:31,145,,,,,,,,,
,00:18:32,144,,,,,,,,,
,00:18:33,144,,,,,,,,,
,00:18:34,143,,,,,,,,,
,00:18:35,143,,,,,,,,,
,00:18:36,143,,,,,,,,,
,00:18:37,142,,,,,,,,,
,00:18:38,142,,,,,,,,,
,00:18:39,142,,,,,,,,,
,00:18:40,141,,,,,,,,,
,00:18:41,141,,,,,,,,,
,00:18:42,140,,,,,,,,,
,00:18:43,139,,,,,,,,,
,00:18:44,139,,,,,,,,,
,00:18:45,139,,,,,,,,,
,00:18:46,138,,,,,,,,,
,00:18:47,138,,,,,,,,,
,00:18:48,138,,,,,,,,,
,00:18:49,138,,,,,,,,,
,00:18:50,138,,,,,,,,,
,00:18:51,137,,,,,,,,,
,00:18:52,137,,,,,,,,,
,00:18:53,137,,,,,,,,,
,00:18:54,137,,,,,,,,,
,00:18:55,137,,,,,,,,,
,00:18:56,136,,,,,,,,,
,00:18:57,136,,,,,,,,,
,00:18:58,136,,,,,,,,,
,00:18:59,136,,,,,,,,,
,00:19:00,136,,,,,,,,,
,00:19:01,136,,,,,,,,,
,00:19:02,135,,,,,,,,,
,00:19:03,135,,,,,,,,,
,00:19:04,135,,,,,,,,,
,00:19:05,135,,,,,,,,,
,00:19:06,135,,,,,,,,,
,00:19:07,136,,,,,,,,,
,00:19:08,136,,,,,,,,,
,00:19:09,136,,,,,,,,,
,00:19:10,135,,,,,,,,,
,00:19:11,135,,,,,,,,,
,00:19:12,134,,,,,,,,,
,00:19:13,133,,,,,,,,,
,00:19:14,133,,,,,,,,,
,00:19:15,133,,,,,,,,,
,00:19:16,132,,,,,,,,,
,00:19:17,132,,,,,,,,,
,00:19:18,132,,,,,,,,,
,00:19:19,131,,,,,,,,,
,00:19:20,131,,,,,,,,,
,00:19:21,131,,,,,,,,,
,00:19:22,132,,,,,,,,,
,00:19:23,132,,,,,,,,,
,00:19:24,132,,,,,,,,,
,00:19:25,131,,,,,,,,,
,00:19:26,131,,,,,,,,,
,00:19:27,131,,,,,,,,,
,00:19:28,130,,,,,,,,,
,00:19:29,130,,,,,,,,,
,00:19:30,129,,,,,,,,,
,00:19:31,129,,,,,,,,,
,00:19:32,129,,,,,,,,,
,00:19:33,129,,,,,,,,,
,00:19:34,128,,,,,,,,,
,00:19:35,127,,,,,,,,,
,00:19:36,126,,,,,,,,,
,00:19:37,126,,,,,,,,,
,00:19:38,126,,,,,,,,,
,00:19:39,126,,,,,,,,,
,00:19:40,126,,,,,,,,,
,00:19:41,127,,,,,,,,,
,00:19:42,127,,,,,,,,,
,00:19:43,127,,,,,,,,,
,00:19:44,127,,,,,,,,,
,00:19:45,127,,,,,,,,,
,00:19:46,128,,,,,,,,,
,00:19:47,128,,,,,,,,,
,00:19:48,128,,,,,,,,,
,00:19:49,128,,,,,,,,,
,00:19:50,129,,,,,,,,,
,00:19:51,130,,,,,,,,,
,00:19:52,131,,,,,,,,,
,00:19:53,131,,,,,,,,,
,00:19:54,131,,,,,,,,,
,00:19:55,132,,,,,,,,,
,00:19:56,132,,,,,,,,,
,00:19:57,133,,,,,,,,,
,00:19:58,133,,,,,,,,,
,00:19:59,134,,,,,,,,,
,00:20:00,135,,,,,,,,,
,00:20:01,135,,,,,,,,,
,00:20:02,135,,,,,,,,,
,00:20:03,136,,,,,,,,,
,00:20:04,136,,,,,,,,,
,00:20:05,136,,,,,,,,,
,00:20:06,137,,,,,,,,,
,00:20:07,137,,,,,,,,,
,00:20:08,137,,,,,,,,,
,00:20:09,138,,,,,,,,,
,00:20:10,138,,,,,,,,,
,00:20:11,138,,,,,,,,,
,00:20:12,139,,,,,,,,,
,00:20:13,139,,,,,,,,,
,00:20:14,139,,,,,,,,,
,00:20:15,140,,,,,,,,,
,00:20:16,140,,,,,,,,,
,00:20:17,141,,,,,,,,,
,00:20:18,141,,,,,,,,,
,00:20:19,141,,,,,,,,,
,00:20:20,141,,,,,,,,,
,00:20:21,142,,,,,,,,,
,00:20:22,142,,,,,,,,,
,00:20:23,142,,,,,,,,,
,00:20:24,142,,,,,,,,,
,00:20:25,143,,,,,,,,,
,00:20:26,143,,,,,,,,,
,00:20:27,143,,,,,,,,,
,00:20:28,143,,,,,,,,,
,00:20:29,143,,,,,,,,,
,00:20:30,143,,,,,,,,,
,00:20:31,144,,,,,,,,,
,00:20:32,144,,,,,,,,,
,00:20:33,144,,,,,,,,,
,00:20:34,145,,,,,,,,,
,00:20:35,145,,,,,,,,,
,00:20:36,145,,,,,,,,,
,00:20:37,146,,,,,,,,,
,00:20:38,146,,,,,,,,,
,00:20:39,146,,,,,,,,,
,00:20:40,146,,,,,,,,,
,00:20:41,147,,,,,,,,,
,00:20:42,147,,,,,,,,,
,00:20:43,147,,,,,,,,,
,00:20:44,147,,,,,,,,,
,00:20:45,147,,,,,,,,,
,00:20:46,147,,,,,,,,,
,00:20:47,148,,,,,,,,,
,00:20:48,148,,,,,,,,,
,00:20:49,148,,,,,,,,,
,00:20:50,148,,,,,,,,,
,00:20:51,149,,,,,,,,,
,00:20:52,148,,,,,,,,,
,00:20:53,149,,,,,,,,,
,00:20:54,149,,,,,,,,,
,00:20:55,149,,,,,,,,,
,00:20:56,149,,,,,,,,,
,00:20:57,150,,,,,,,,,
,00:20:58,150,,,,,,,,,
,00:20:59,150,,,,,,,,,
,00:21:00,150,,,,,,,,,
,00:21:01,151,,,,,,,,,
,00:21:02,150,,,,,,,,,
,00:21:03,151,,,,,,,,,
,00:21:04,151,,,,,,,,,
,00:21:05,151,,,,,,,,,
,00:21:06,151,,,,,,,,,
,00:21:07,151,,,,,,,,,
,00:21:08,151,,,,,,,,,
,00:21:09,151,,,,,,,,,
,00:21:10,151,,,,,,,,,
,00:21:11,151,,,,,,,,,
,00:21:12,151,,,,,,,,,
,00:21:13,151,,,,,,,,,
,00:21:14,152,,,,,,,,,
,00:21:15,151,,,,,,,,,
,00:21:16,152,,,,,,,,,
,00:21:17,152,,,,,,,,,
,00:21:18,152,,,,,,,,,
,00:21:19,152,,,,,,,,,
,00:21:20,152,,,,,,,,,
,00:21:21,152,,,,,,,,,
,00:21:22,152,,,,,,,,,
,00:21:23,152,,,,,,,,,
,00:21:24,152,,,,,,,,,
,00:21:25,152,,,,,,,,,
,00:21:26,152,,,,,,,,,
,00:21:27,152,,,,,,,,,
,00:21:28,152,,,,,,,,,
,00:21:29,152,,,,,,,,,
,00:21:30,152,,,,,,,,,
,00:21:31,152,,,,,,,,,
,00:21:32,151,,,,,,,,,
,00:21:33,151,,,,,,,,,
,00:21:34,151,,,,,,,,,
,00:21:35,151,,,,,,,,,
,00:21:36,150,,,,,,,,,
,00:21:37,150,,,,,,,,,
,00:21:38,150,,,,,,,,,
,00:21:39,150,,,,,,,,,
,00:21:40,150,,,,,,,,,
,00:21:41,150,,,,,,,,,
,00:21:42,150,,,,,,,,,
,00:21:43,150,,,,,,,,,
,00:21:44,150,,,,,,,,,
,00:21:45,150,,,,,,,,,
,00:21:46,150,,,,,,,,,
,00:21:47,150,,,,,,,,,
,00:21:48,150,,,,,,,,,
,00:21:49,150,,,,,,,,,
,00:21:50,150,,,,,,,,,
,00:21:51,149,,,,,,,,,
,00:21:52,149,,,,,,,,,
,00:21:53,149,,,,,,,,,
,00:21:54,149,,,,,,,,,
,00:21:55,149,,,,,,,,,
,00:21:56,149,,,,,,,,,
,00:21:57,149,,,,,,,,,
,00:21:58,149,,,,,,,,,
,00:21:59,149,,,,,,,,,
,00:22:00,149,,,,,,,,,
,00:22:01,149,,,,,,,,,
,00:22:02,149,,,,,,,,,
,00:22:03,148,,,,,,,,,
,00:22:04,148,,,,,,,,,
,00:22:05,148,,,,,,,,,
,00:22:06,148,,,,,,,,,
,00:22:07,148,,,,,,,,,
,00:22:08,147,,,,,,,,,
,00:22:09,147,,,,,,,,,
,00:22:10,147,,,,,,,,,
,00:22:11,147,,,,,,,,,
,00:22:12,146,,,,,,,,,
,00:22:13,146,,,,,,,,,
,00:22:14,146,,,,,,,,,
,00:22:15,145,,,,,,,,,
,00:22:16,145,,,,,,,,,
,00:22:17,144,,,,,,,,,
,00:22:18,144,,,,,,,,,
,00:22:19,144,,,,,,,,,
,00:22:20,143,,,,,,,,,
,00:22:21,143,,,,,,,,,
,00:22:22,143,,,,,,,,,
,00:22:23,143,,,,,,,,,
,00:22:24,143,,,,,,,,,
,00:22:25,142,,,,,,,,,
,00:22:26,142,,,,,,,,,
,00:22:27,142,,,,,,,,,
,00:22:28,142,,,,,,,,,
,00:22:29,142,,,,,,,,,
,00:22:30,142,,,,,,,,,
,00:22:31,141,,,,,,,,,
,00:22:32,141,,,,,,,,,
,00:22:33,141,,,,,,,,,
,00:22:34,140,,,,,,,,,
,00:22:35,140,,,,,,,,,
,00:22:36,140,,,,,,,,,
,00:22:37,140,,,,,,,,,
,00:22:38,139,,,,,,,,,
,00:22:39,139,,,,,,,,,
,00:22:40,139,,,,,,,,,
,00:22:41,138,,,,,,,,,
,00:22:42,138,,,,,,,,,
,00:22:43,138,,,,,,,,,
,00:22:44,138,,,,,,,,,
,00:22:45,137,,,,,,,,,
,00:22:46,137,,,,,,,,,
,00:22:47,136,,,,,,,,,
,00:22:48,136,,,,,,,,,
,00:22:49,136,,,,,,,,,
,00:22:50,135,,,,,,,,,
,00:22:51,136,,,,,,,,,
,00:22:52,135,,,,,,,,,
,00:22:53,135,,,,,,,,,
,00:22:54,135,,,,,,,,,
,00:22:55,135,,,,,,,,,
,00:22:56,135,,,,,,,,,
,00:22:57,134,,,,,,,,,
,00:22:58,134,,,,,,,,,
,00:22:59,133,,,,,,,,,
,00:23:00,133,,,,,,,,,
,00:23:01,132,,,,,,,,,
,00:23:02,132,,,,,,,,,
,00:23:03,132,,,,,,,,,
,00:23:04,132,,,,,,,,,
,00:23:05,131,,,,,,,,,
,00:23:06,131,,,,,,,,,
,00:23:07,131,,,,,,,,,
,00:23:08,131,,,,,,,,,
,00:23:09,131,,,,,,,,,
,00:23:10,131,,,,,,,,,
,00:23:11,130,,,,,,,,,
,00:23:12,130,,,,,,,,,
,00:23:13,130,,,,,,,,,
,00:23:14,130,,,,,,,,,
,00:23:15,130,,,,,,,,,
,00:23:16,130,,,,,,,,,
,00:23:17,131,,,,,,,,,
,00:23:18,131,,,,,,,,,
,00:23:19,132,,,,,,,,,
,00:23:20,132,,,,,,,,,
,00:23:21,132,,,,,,,,,
,00:23:22,132,,,,,,,,,
,00:23:23,132,,,,,,,,,
,00:23:24,132,,,,,,,,,
,00:23:25,133,,,,,,,,,
,00:23:26,133,,,,,,,,,
,00:23:27,133,,,,,,,,,
,00:23:28,134,,,,,,,,,
,00:23:29,134,,,,,,,,,
,00:23:30,135,,,,,,,,,
,00:23:31,135,,,,,,,,,
,00:23:32,135,,,,,,,,,
,00:23:33,136,,,,,,,,,
,00:23:34,136,,,,,,,,,
,00:23:35,136,,,,,,,,,
,00:23:36,137,,,,,,,,,
,00:23:37,137,,,,,,,,,
,00:23:38,137,,,,,,,,,
,00:23:39,137,,,,,,,,,
,00:23:40,138,,,,,,,,,
,00:23:41,138,,,,,,,,,
,00:23:42,138,,,,,,,,,
,00:23:43,139,,,,,,,,,
,00:23:44,139,,,,,,,,,
,00:23:45,139,,,,,,,,,
,00:23:46,140,,,,,,,,,
,00:23:47,140,,,,,,,,,
,00:23:48,141,,,,,,,,,
,00:23:49,141,,,,,,,,,
,00:23:50,141,,,,,,,,,
,00:23:51,141,,,,,,,,,
,00:23:52,142,,,,,,,,,
,00:23:53,142,,,,,,,,,
,00:23:54,142,,,,,,,,,
,00:23:55,142,,,,,,,,,
,00:23:56,142,,,,,,,,,
,00:23:57,143,,,,,,,,,
,00:23:58,143,,,,,,,,,
,00:23:59,143,,,,,,,,,
,00:24:00,144,,,,,,,,,
,00:24:01,144,,,,,,,,,
,00:24:02,144,,,,,,,,,
,00:24:03,144,,,,,,,,,
,00:24:04,145,,,,,,,,,
,00:24:05,145,,,,,,,,,
,00:24:06,145,,,,,,,,,
,00:24:07,146,,,,,,,,,
,00:24:08,145,,,,,,,,,
,00:24:09,146,,,,,,,,,
,00:24:10,146,,,,,,,,,
,00:24:11,146,,,,,,,,,
,00:24:12,146,,,,,,,,,
,00:24:13,146,,,,,,,,,
,00:24:14,147,,,,,,,,,
,00:24:15,147,,,,,,,,,
,00:24:16,147,,,,,,,,,
,00:24:17,147,,,,,,,,,
,00:24:18,147,,,,,,,,,
,00:24:19,148,,,,,,,,,
,00:24:20,148,,,,,,,,,
,00:24:21,148,,,,,,,,,
,00:24:22,148,,,,,,,,,
,00:24:23,148,,,,,,,,,
,00:24:24,149,,,,,,,,,
,00:24:25,149,,,,,,,,,
,00:24:26,149,,,,,,,,,
,00:24:27,149,,,,,,,,,
,00:24:28,149,,,,,,,,,
,00:24:29,149,,,,,,,,,
,00:24:30,149,,,,,,,,,
,00:24:31,150,,,,,,,,,
,00:24:32,150,,,,,,,,,
,00:24:33,150,,,,,,,,,
,00:24:34,150,,,,,,,,,
,00:24:35,150,,,,,,,,,
,00:24:36,150,,,,,,,,,
,00:24:37,150,,,,,,,,,
,00:24:38,151,,,,,,,,,
,00:24:39,151,,,,,,,,,
,00:24:40,151,,,,,,,,,
,00:24:41,151,,,,,,,,,
,00:24:42,151,,,,,,,,,
,00:24:43,151,,,,,,,,,
,00:24:44,151,,,,,,,,,
,00:24:45,152,,,,,,,,,
,00:24:46,152,,,,,,,,,
,00:24:47,152,,,,,,,,,
,00:24:48,152,,,,,,,,,
,00:24:49,152,,,,,,,,,
,00:24:50,152,,,,,,,,,
,00:24:51,152,,,,,,,,,
,00:24:52,152,,,,,,,,,
,00:24:53,152,,,,,,,,,
,00:24:54,153,,,,,,,,,
,00:24:55,153,,,,,,,,,
,00:24:56,153,,,,,,,,,
,00:24:57,153,,,,,,,,,
,00:24:58,153,,,,,,,,,
,00:24:59,153,,,,,,,,,
,00:25:00,153,,,,,,,,,
,00:25:01,153,,,,,,,,,
,00:25:02,153,,,,,,,,,
,00:25:03,153,,,,,,,,,
,00:25:04,153,,,,,,,,,
,00:25:05,153,,,,,,,,,
,00:25:06,153,,,,,,,,,
,00:25:07,153,,,,,,,,,
,00:25:08,153,,,,,,,,,
,00:25:09,153,,,,,,,,,
,00:25:10,153,,,,,,,,,
,00:25:11,153,,,,,,,,,
,00:25:12,152,,,,,,,,,
,00:25:13,152,,,,,,,,,
,00:25:14,152,,,,,,,,,
,00:25:15,151,,,,,,,,,
,00:25:16,152,,,,,,,,,
,00:25:17,152,,,,,,,,,
,00:25:18,152,,,,,,,,,
,00:25:19,152,,,,,,,,,
,00:25:20,152,,,,,,,,,
,00:25:21,151,,,,,,,,,
,00:25:22,151,,,,,,,,,
,00:25:23,151,,,,,,,,,
,00:25:24,151,,,,,,,,,
,00:25:25,151,,,,,,,,,
,00:25:26,150,,,,,,,,,
,00:25:27,150,,,,,,,,,
,00:25:28,150,,,,,,,,,
,00:25:29,150,,,,,,,,,
,00:25:30,150,,,,,,,,,
,00:25:31,150,,,,,,,,,
,00:25:32,150,,,,,,,,,
,00:25:33,150,,,,,,,,,
,00:25:34,150,,,,,,,,,
,00:25:35,150,,,,,,,,,
,00:25:36,150,,,,,,,,,
,00:25:37,150,,,,,,,,,
,00:25:38,150,,,,,,,,,
,00:25:39,150,,,,,,,,,
,00:25:40,150,,,,,,,,,
,00:25:41,150,,,,,,,,,
,00:25:42,150,,,,,,,,,
,00:25:43,149,,,,,,,,,
,00:25:44,149,,,,,,,,,
,00:25:45,149,,,,,,,,,
,00:25:46,149,,,,,,,,,
,00:25:47,148,,,,,,,,,
,00:25:48,148,,,,,,,,,
,00:25:49,148,,,,,,,,,
,00:25:50,148,,,,,,,,,
,00:25:51,148,,,,,,,,,
,00:25:52,147,,,,,,,,,
,00:25:53,147,,,,,,,,,
,00:25:54,147,,,,,,,,,
,00:25:55,147,,,,,,,,,
,00:25:56,147,,,,,,,,,
,00:25:57,147,,,,,,,,,
,00:25:58,146,,,,,,,,,
,00:25:59,146,,,,,,,,,
,00:26:00,146,,,,,,,,,
,00:26:01,146,,,,,,,,,
,00:26:02,146,,,,,,,,,
,00:26:03,145,,,,,,,,,
,00:26:04,145,,,,,,,,,
,00:26:05,145,,,,,,,,,
,00:26:06,145,,,,,,,,,
,00:26:07,145,,,,,,,,,
,00:26:08,144,,,,,,,,,
,00:26:09,144,,,,,,,,,
,00:26:10,144,,,,,,,,,
,00:26:11,143,,,,,,,,,
,00:26:12,143,,,,,,,,,
,00:26:13,143,,,,,,,,,
,00:26:14,142,,,,,,,,,
,00:26:15,142,,,,,,,,,
,00:26:16,142,,,,,,,,,
,00:26:17,141,,,,,,,,,
,00:26:18,141,,,,,,,,,
,00:26:19,141,,,,,,,,,
,00:26:20,140,,,,,,,,,
,00:26:21,140,,,,,,,,,
,00:26:22,139,,,,,,,,,
,00:26:23,139,,,,,,,,,
,00:26:24,138,,,,,,,,,
,00:26:25,138,,,,,,,,,
,00:26:26,137,,,,,,,,,
,00:26:27,137,,,,,,,,,
,00:26:28,137,,,,,,,,,
,00:26:29,136,,,,,,,,,
,00:26:30,136,,,,,,,,,
,00:26:31,136,,,,,,,,,
,00:26:32,135,,,,,,,,,
,00:26:33,135,,,,,,,,,
,00:26:34,134,,,,,,,,,
,00:26:35,134,,,,,,,,,
,00:26:36,134,,,,,,,,,
,00:26:37,133,,,,,,,,,
,00:26:38,133,,,,,,,,,
,00:26:39,133,,,,,,,,,
,00:26:40,134,,,,,,,,,
,00:26:41,134,,,,,,,,,
,00:26:42,134,,,,,,,,,
,00:26:43,133,,,,,,,,,
,00:26:44,133,,,,,,,,,
,00:26:45,133,,,,,,,,,
,00:26:46,133,,,,,,,,,
,00:26:47,133,,,,,,,,,
,00:26:48,133,,,,,,,,,
,00:26:49,132,,,,,,,,,
,00:26:50,132,,,,,,,,,
,00:26:51,132,,,,,,,,,
,00:26:52,132,,,,,,,,,
,00:26:53,132,,,,,,,,,
,00:26:54,132,,,,,,,,,
,00:26:55,132,,,,,,,,,
,00:26:56,132,,,,,,,,,
,00:26:57,132,,,,,,,,,
,00:26:58,132,,,,,,,,,
,00:26:59,131,,,,,,,,,
,00:27:00,131,,,,,,,,,
,00:27:01,131,,,,,,,,,
,00:27:02,131,,,,,,,,,
,00:27:03,132,,,,,,,,,
,00:27:04,132,,,,,,,,,
,00:27:05,132,,,,,,,,,
,00:27:06,132,,,,,,,,,
,00:27:07,134,,,,,,,,,
,00:27:08,133,,,,,,,,,
,00:27:09,134,,,,,,,,,
,00:27:10,135,,,,,,,,,
,00:27:11,135,,,,,,,,,
,00:27:12,135,,,,,,,,,
,00:27:13,136,,,,,,,,,
,00:27:14,136,,,,,,,,,
,00:27:15,137,,,,,,,,,
,00:27:16,138,,,,,,,,,
,00:27:17,138,,,,,,,,,
,00:27:18,138,,,,,,,,,
,00:27:19,139,,,,,,,,,
,00:27:20,139,,,,,,,,,
,00:27:21,140,,,,,,,,,
,00:27:22,140,,,,,,,,,
,00:27:23,141,,,,,,,,,
,00:27:24,141,,,,,,,,,
,00:27:25,141,,,,,,,,,
,00:27:26,142,,,,,,,,,
,00:27:27,142,,,,,,,,,
,00:27:28,142,,,,,,,,,
,00:27:29,143,,,,,,,,,
,00:27:30,143,,,,,,,,,
,00:27:31,143,,,,,,,,,
,00:27:32,143,,,,,,,,,
,00:27:33,144,,,,,,,,,
,00:27:34,144,,,,,,,,,
,00:27:35,144,,,,,,,,,
,00:27:36,145,,,,,,,,,
,00:27:37,145,,,,,,,,,
,00:27:38,145,,,,,,,,,
,00:27:39,145,,,,,,,,,
,00:27:40,145,,,,,,,,,
,00:27:41,145,,,,,,,,,
,00:27:42,145,,,,,,,,,
,00:27:43,146,,,,,,,,,
,00:27:44,146,,,,,,,,,
,00:27:45,146,,,,,,,,,
,00:27:46,147,,,,,,,,,
,00:27:47,147,,,,,,,,,
,00:27:48,147,,,,,,,,,
,00:27:49,148,,,,,,,,,
,00:27:50,148,,,,,,,,,
,00:27:51,148,,,,,,,,,
,00:27:52,148,,,,,,,,,
,00:27:53,148,,,,,,,,,
,00:27:54,148,,,,,,,,,
,00:27:55,149,,,,,,,,,
,00:27:56,149,,,,,,,,,
,00:27:57,150,,,,,,,,,
,00:27:58,150,,,,,,,,,
,00:27:59,150,,,,,,,,,
,00:28:00,150,,,,,,,,,
,00:28:01,150,,,,,,,,,
,00:28:02,151,,,,,,,,,
,00:28:03,151,,,,,,,,,
,00:28:04,151,,,,,,,,,
,00:28:05,151,,,,,,,,,
,00:28:06,151,,,,,,,,,
,00:28:07,153,,,,,,,,,
,00:28:08,153,,,,,,,,,
,00:28:09,153,,,,,,,,,
,00:28:10,153,,,,,,,,,
,00:28:11,153,,,,,,,,,
,00:28:12,153,,,,,,,,,
,00:28:13,153,,,,,,,,,
,00:28:14,154,,,,,,,,,
,00:28:15,154,,,,,,,,,
,00:28:16,154,,,,,,,,,
,00:28:17,154,,,,,,,,,
,00:28:18,154,,,,,,,,,
,00:28:19,154,,,,,,,,,
,00:28:20,154,,,,,,,,,
,00:28:21,154,,,,,,,,,
,00:28:22,155,,,,,,,,,
,00:28:23,155,,,,,,,,,
,00:28:24,155,,,,,,,,,
,00:28:25,155,,,,,,,,,
,00:28:26,155,,,,,,,,,
,00:28:27,155,,,,,,,,,
,00:28:28,155,,,,,,,,,
,00:28:29,156,,,,,,,,,
,00:28:30,155,,,,,,,,,
,00:28:31,156,,,,,,,,,
,00:28:32,156,,,,,,,,,
,00:28:33,156,,,,,,,,,
,00:28:34,156,,,,,,,,,
,00:28:35,156,,,,,,,,,
,00:28:36,156,,,,,,,,,
,00:28:37,156,,,,,,,,,
,00:28:38,156,,,,,,,,,
,00:28:39,156,,,,,,,,,
,00:28:40,156,,,,,,,,,
,00:28:41,156,,,,,,,,,
,00:28:42,156,,,,,,,,,
,00:28:43,156,,,,,,,,,
,00:28:44,156,,,,,,,,,
,00:28:45,156,,,,,,,,,
,00:28:46,156,,,,,,,,,
,00:28:47,156,,,,,,,,,
,00:28:48,156,,,,,,,,,
,00:28:49,155,,,,,,,,,
,00:28:50,155,,,,,,,,,
,00:28:51,154,,,,,,,,,
,00:28:52,154,,,,,,,,,
,00:28:53,154,,,,,,,,,
,00:28:54,155,,,,,,,,,
,00:28:55,155,,,,,,,,,
,00:28:56,154,,,,,,,,,
,00:28:57,153,,,,,,,,,
,00:28:58,153,,,,,,,,,
,00:28:59,153,,,,,,,,,
,00:29:00,152,,,,,,,,,
,00:29:01,152,,,,,,,,,
,00:29:02,152,,,,,,,,,
,00:29:03,151,,,,,,,,,
,00:29:04,151,,,,,,,,,
,00:29:05,151,,,,,,,,,
,00:29:06,150,,,,,,,,,
,00:29:07,150,,,,,,,,,
,00:29:08,150,,,,,,,,,
,00:29:09,150,,,,,,,,,
,00:29:10,150,,,,,,,,,
,00:29:11,150,,,,,,,,,
,00:29:12,150,,,,,,,,,
,00:29:13,149,,,,,,,,,
,00:29:14,149,,,,,,,,,
,00:29:15,149,,,,,,,,,
,00:29:16,149,,,,,,,,,
,00:29:17,149,,,,,,,,,
,00:29:18,149,,,,,,,,,
,00:29:19,149,,,,,,,,,
,00:29:20,149,,,,,,,,,
,00:29:21,149,,,,,,,,,
,00:29:22,149,,,,,,,,,
,00:29:23,148,,,,,,,,,
,00:29:24,148,,,,,,,,,
,00:29:25,147,,,,,,,,,
,00:29:26,146,,,,,,,,,
,00:29:27,145,,,,,,,,,
,00:29:28,145,,,,,,,,,
,00:29:29,144,,,,,,,,,
,00:29:30,144,,,,,,,,,
,00:29:31,143,,,,,,,,,
,00:29:32,143,,,,,,,,,
,00:29:33,143,,,,,,,,,
,00:29:34,143,,,,,,,,,
,00:29:35,143,,,,,,,,,
,00:29:36,143,,,,,,,,,
,00:29:37,143,,,,,,,,,
,00:29:38,143,,,,,,,,,
,00:29:39,143,,,,,,,,,
,00:29:40,144,,,,,,,,,
,00:29:41,144,,,,,,,,,
,00:29:42,144,,,,,,,,,
,00:29:43,144,,,,,,,,,
,00:29:44,144,,,,,,,,,
,00:29:45,143,,,,,,,,,
,00:29:46,143,,,,,,,,,
,00:29:47,143,,,,,,,,,
,00:29:48,142,,,,,,,,,
,00:29:49,142,,,,,,,,,
,00:29:50,142,,,,,,,,,
,00:29:51,142,,,,,,,,,
,00:29:52,142,,,,,,,,,
,00:29:53,142,,,,,,,,,
,00:29:54,141,,,,,,,,,
,00:29:55,141,,,,,,,,,
,00:29:56,141,,,,,,,,,
,00:29:57,141,,,,,,,,,
,00:29:58,141,,,,,,,,,
,00:29:59,141,,,,,,,,,
,00:30:00,140,,,,,,,,,
,00:30:01,140,,,,,,,,,
,00:30:02,140,,,,,,,,,
,00:30:03,140,,,,,,,,,
,00:30:04,140,,,,,,,,,
,00:30:05,140,,,,,,,,,
,00:30:06,139,,,,,,,,,
,00:30:07,139,,,,,,,,,
,00:30:08,139,,,,,,,,,
,00:30:09,139,,,,,,,,,
,00:30:10,139,,,,,,,,,
,00:30:11,139,,,,,,,,,
,00:30:12,138,,,,,,,,,
,00:30:13,138,,,,,,,,,
,00:30:14,138,,,,,,,,,
,00:30:15,138,,,,,,,,,
,00:30:16,137,,,,,,,,,
,00:30:17,137,,,,,,,,,
,00:30:18,137,,,,,,,,,
,00:30:19,137,,,,,,,,,
,00:30:20,137,,,,,,,,,
,00:30:21,136,,,,,,,,,
,00:30:22,136,,,,,,,,,
,00:30:23,136,,,,,,,,,
,00:30:24,136,,,,,,,,,
,00:30:25,136,,,,,,,,,
,00:30:26,136,,,,,,,,,
,00:30:27,135,,,,,,,,,
,00:30:28,135,,,,,,,,,
,00:30:29,135,,,,,,,,,
,00:30:30,135,,,,,,,,,
,00:30:31,134,,,,,,,,,
,00:30:32,134,,,,,,,,,
,00:30:33,133,,,,,,,,,
,00:30:34,133,,,,,,,,,
,00:30:35,133,,,,,,,,,
,00:30:36,133,,,,,,,,,
,00:30:37,132,,,,,,,,,
,00:30:38,132,,,,,,,,,
,00:30:39,132,,,,,,,,,
,00:30:40,132,,,,,,,,,
,00:30:41,132,,,,,,,,,
,00:30:42,131,,,,,,,,,
,00:30:43,130,,,,,,,,,
,00:30:44,130,,,,,,,,,
,00:30:45,130,,,,,,,,,
,00:30:46,130,,,,,,,,,
,00:30:47,130,,,,,,,,,
,00:30:48,130,,,,,,,,,
,00:30:49,130,,,,,,,,,
,00:30:50,130,,,,,,,,,
,00:30:51,130,,,,,,,,,
,00:30:52,129,,,,,,,,,
,00:30:53,129,,,,,,,,,
,00:30:54,129,,,,,,,,,
,00:30:55,128,,,,,,,,,
,00:30:56,128,,,,,,,,,
,00:30:57,128,,,,,,,,,
,00:30:58,127,,,,,,,,,
,00:30:59,127,,,,,,,,,
,00:31:00,127,,,,,,,,,
,00:31:01,127,,,,,,,,,
,00:31:02,127,,,,,,,,,
,00:31:03,127,,,,,,,,,
,00:31:04,127,,,,,,,,,
,00:31:05,127,,,,,,,,,
,00:31:06,127,,,,,,,,,
,00:31:07,126,,,,,,,,,
,00:31:08,126,,,,,,,,,
,00:31:09,126,,,,,,,,,
,00:31:10,126,,,,,,,,,
,00:31:11,126,,,,,,,,,
,00:31:12,126,,,,,,,,,
,00:31:13,126,,,,,,,,,
,00:31:14,126,,,,,,,,,
,00:31:15,126,,,,,,,,,
,00:31:16,126,,,,,,,,,
,00:31:17,126,,,,,,,,,
,00:31:18,126,,,,,,,,,
,00:31:19,126,,,,,,,,,
,00:31:20,126,,,,,,,,,
,00:31:21,126,,,,,,,,,
,00:31:22,126,,,,,,,,,
,00:31:23,126,,,,,,,,,
,00:31:24,125,,,,,,,,,
,00:31:25,125,,,,,,,,,
,00:31:26,125,,,,,,,,,
,00:31:27,125,,,,,,,,,
,00:31:28,125,,,,,,,,,
,00:31:29,125,,,,,,,,,
,00:31:30,125,,,,,,,,,
,00:31:31,124,,,,,,,,,
,00:31:32,124,,,,,,,,,
,00:31:33,124,,,,,,,,,
,00:31:34,124,,,,,,,,,
,00:31:35,123,,,,,,,,,
,00:31:36,123,,,,,,,,,
,00:31:37,123,,,,,,,,,
,00:31:38,123,,,,,,,,,
,00:31:39,123,,,,,,,,,
,00:31:40,123,,,,,,,,,
,00:31:41,124,,,,,,,,,
,00:31:42,124,,,,,,,,,
,00:31:43,124,,,,,,,,,
,00:31:44,124,,,,,,,,,
,00:31:45,124,,,,,,,,,
,00:31:46,124,,,,,,,,,
,00:31:47,124,,,,,,,,,
,00:31:48,124,,,,,,,,,
,00:31:49,124,,,,,,,,,
,00:31:50,124,,,,,,,,,
,00:31:51,124,,,,,,,,,
,00:31:52,124,,,,,,,,,
,00:31:53,124,,,,,,,,,
,00:31:54,124,,,,,,,,,
,00:31:55,124,,,,,,,,,
,00:31:56,125,,,,,,,,,
,00:31:57,125,,,,,,,,,
,00:31:58,125,,,,,,,,,
,00:31:59,125,,,,,,,,,
,00:32:00,124,,,,,,,,,
,00:32:01,124,,,,,,,,,
,00:32:02,123,,,,,,,,,
,00:32:03,122,,,,,,,,,
,00:32:04,122,,,,,,,,,
,00:32:05,121,,,,,,,,,
,00:32:06,121,,,,,,,,,
,00:32:07,121,,,,,,,,,
,00:32:08,121,,,,,,,,,
,00:32:09,121,,,,,,,,,
,00:32:10,121,,,,,,,,,
,00:32:11,121,,,,,,,,,
,00:32:12,121,,,,,,,,,
,00:32:13,120,,,,,,,,,
,00:32:14,120,,,,,,,,,
,00:32:15,120,,,,,,,,,
,00:32:16,120,,,,,,,,,
,00:32:17,120,,,,,,,,,
,00:32:18,119,,,,,,,,,
,00:32:19,119,,,,,,,,,
,00:32:20,119,,,,,,,,,
,00:32:21,119,,,,,,,,,
,00:32:22,119,,,,,,,,,
,00:32:23,119,,,,,,,,,
,00:32:24,119,,,,,,,,,
,00:32:25,118,,,,,,,,,
,00:32:26,118,,,,,,,,,
,00:32:27,118,,,,,,,,,
,00:32:28,117,,,,,,,,,
,00:32:29,117,,,,,,,,,
,00:32:30,117,,,,,,,,,
,00:32:31,117,,,,,,,,,
,00:32:32,118,,,,,,,,,
,00:32:33,118,,,,,,,,,
,00:32:34,118,,,,,,,,,
,00:32:35,118,,,,,,,,,
,00:32:36,118,,,,,,,,,
,00:32:37,118,,,,,,,,,
,00:32:38,118,,,,,,,,,
,00:32:39,118,,,,,,,,,
,00:32:40,118,,,,,,,,,
,00:32:41,118,,,,,,,,,
,00:32:42,118,,,,,,,,,
,00:32:43,118,,,,,,,,,
,00:32:44,118,,,,,,,,,
,00:32:45,118,,,,,,,,,
,00:32:46,118,,,,,,,,,
,00:32:47,118,,,,,,,,,
,00:32:48,118,,,,,,,,,
,00:32:49,118,,,,,,,,,
,00:32:50,118,,,,,,,,,
,00:32:51,117,,,,,,,,,
,00:32:52,117,,,,,,,,,
,00:32:53,116,,,,,,,,,
,00:32:54,116,,,,,,,,,
,00:32:55,116,,,,,,,,,
,00:32:56,115,,,,,,,,,
,00:32:57,115,,,,,,,,,
,00:32:58,115,,,,,,,,,
,00:32:59,114,,,,,,,,,
,00:33:00,114,,,,,,,,,
,00:33:01,114,,,,,,,,,
,00:33:02,114,,,,,,,,,
,00:33:03,114,,,,,,,,,
,00:33:04,114,,,,,,,,,
,00:33:05,114,,,,,,,,,
,00:33:06,114,,,,,,,,,
,00:33:07,114,,,,,,,,,
,00:33:08,113,,,,,,,,,
,00:33:09,113,,,,,,,,,
,00:33:10,113,,,,,,,,,
,00:33:11,113,,,,,,,,,
,00:33:12,113,,,,,,,,,
,00:33:13,114,,,,,,,,,
,00:33:14,114,,,,,,,,,
,00:33:15,114,,,,,,,,,
,00:33:16,114,,,,,,,,,
,00:33:17,114,,,,,,,,,
,00:33:18,114,,,,,,,,,
,00:33:19,114,,,,,,,,,
,00:33:20,114,,,,,,,,,
,00:33:21,114,,,,,,,,,
,00:33:22,114,,,,,,,,,
,00:33:23,113,,,,,,,,,
,00:33:24,113,,,,,,,,,
,00:33:25,113,,,,,,,,,
,00:33:26,113,,,,,,,,,
,00:33:27,113,,,,,,,,,
,00:33:28,113,,,,,,,,,
,00:33:29,113,,,,,,,,,
,00:33:30,113,,,,,,,,,
,00:33:31,113,,,,,,,,,
,00:33:32,113,,,,,,,,,
,00:33:33,113,,,,,,,,,
,00:33:34,113,,,,,,,,,
,00:33:35,114,,,,,,,,,
,00:33:36,114,,,,,,,,,
,00:33:37,114,,,,,,,,,
,00:33:38,114,,,,,,,,,
,00:33:39,114,,,,,,,,,
,00:33:40,114,,,,,,,,,
,00:33:41,114,,,,,,,,,
,00:33:42,114,,,,,,,,,
,00:33:43,114,,,,,,,,,
,00:33:44,114,,,,,,,,,
,00:33:45,113,,,,,,,,,
,00:33:46,113,,,,,,,,,
,00:33:47,113,,,,,,,,,
,00:33:48,113,,,,,,,,,
,00:33:49,112,,,,,,,,,
,00:33:50,112,,,,,,,,,
,00:33:51,112,,,,,,,,,
,00:33:52,112,,,,,,,,,
,00:33:53,112,,,,,,,,,
,00:33:54,112,,,,,,,,,
,00:33:55,113,,,,,,,,,
,00:33:56,113,,,,,,,,,
,00:33:57,113,,,,,,,,,
,00:33:58,113,,,,,,,,,
,00:33:59,113,,,,,,,,,
,00:34:00,113,,,,,,,,,
,00:34:01,113,,,,,,,,,
,00:34:02,113,,,,,,,,,
,00:34:03,112,,,,,,,,,
,00:34:04,112,,,,,,,,,
,00:34:05,112,,,,,,,,,
,00:34:06,112,,,,,,,,,
,00:34:07,112,,,,,,,,,
,00:34:08,112,,,,,,,,,
,00:34:09,112,,,,,,,,,
,00:34:10,112,,,,,,,,,
,00:34:11,113,,,,,,,,,
,00:34:12,113,,,,,,,,,
,00:34:13,113,,,,,,,,,
,00:34:14,113,,,,,,,,,
,00:34:15,113,,,,,,,,,
,00:34:16,113,,,,,,,,,
,00:34:17,112,,,,,,,,,
,00:34:18,113,,,,,,,,,
,00:34:19,113,,,,,,,,,
,00:34:20,113,,,,,,,,,
,00:34:21,113,,,,,,,,,
,00:34:22,113,,,,,,,,,
,00:34:23,113,,,,,,,,,
,00:34:24,113,,,,,,,,,
,00:34:25,113,,,,,,,,,
,00:34:26,113,,,,,,,,,
,00:34:27,113,,,,,,,,,
,00:34:28,113,,,,,,,,,
,00:34:29,113,,,,,,,,,
,00:34:30,113,,,,,,,,,
,00:34:31,113,,,,,,,,,
,00:34:32,113,,,,,,,,,
,00:34:33,113,,,,,,,,,
,00:34:34,113,,,,,,,,,
,00:34:35,114,,,,,,,,,
,00:34:36,114,,,,,,,,,
,00:34:37,114,,,,,,,,,
,00:34:38,114,,,,,,,,,
,00:34:39,114,,,,,,,,,
,00:34:40,115,,,,,,,,,
,00:34:41,115,,,,,,,,,
,00:34:42,115,,,,,,,,,
,00:34:43,115,,,,,,,,,
,00:34:44,115,,,,,,,,,
,00:34:45,116,,,,,,,,,
,00:34:46,116,,,,,,,,,
,00:34:47,116,,,,,,,,,
,00:34:48,116,,,,,,,,,
,00:34:49,116,,,,,,,,,
,00:34:50,115,,,,,,,,,
,00:34:51,115,,,,,,,,,
,00:34:52,115,,,,,,,,,
,00:34:53,114,,,,,,,,,
,00:34:54,114,,,,,,,,,
,00:34:55,114,,,,,,,,,
,00:34:56,113,,,,,,,,,
,00:34:57,113,,,,,,,,,
,00:34:58,113,,,,,,,,,
,00:34:59,112,,,,,,,,,
,00:35:00,112,,,,,,,,,
,00:35:01,112,,,,,,,,,
,00:35:02,112,,,,,,,,,
,00:35:03,112,,,,,,,,,
,00:35:04,112,,,,,,,,,
,00:35:05,112,,,,,,,,,
,00:35:06,112,,,,,,,,,
,00:35:07,112,,,,,,,,,
,00:35:08,112,,,,,,,,,
,00:35:09,112,,,,,,,,,
,00:35:10,112,,,,,,,,,
,00:35:11,112,,,,,,,,,
,00:35:12,112,,,,,,,,,
,00:35:13,112,,,,,,,,,
,00:35:14,112,,,,,,,,,
,00:35:15,113,,,,,,,,,
,00:35:16,113,,,,,,,,,
,00:35:17,113,,,,,,,,,
,00:35:18,113,,,,,,,,,
,00:35:19,113,,,,,,,,,
,00:35:20,112,,,,,,,,,
,00:35:21,111,,,,,,,,,
,00:35:22,111,,,,,,,,,
,00:35:23,111,,,,,,,,,
,00:35:24,110,,,,,,,,,
,00:35:25,110,,,,,,,,,
,00:35:26,110,,,,,,,,,
,00:35:27,110,,,,,,,,,
,00:35:28,110,,,,,,,,,
,00:35:29,110,,,,,,,,,
,00:35:30,110,,,,,,,,,
,00:35:31,108,,,,,,,,,
,00:35:32,108,,,,,,,,,
,00:35:33,108,,,,,,,,,
,00:35:34,105,,,,,,,,,
,00:35:35,102,,,,,,,,,
,00:35:36,100,,,,,,,,,
,00:35:37,98,,,,,,,,,
,00:35:38,97,,,,,,,,,
,00:35:39,96,,,,,,,,,
,00:35:40,96,,,,,,,,,
,00:35:41,96,,,,,,,,,
,00:35:42,96,,,,,,,,,
,00:35:43,96,,,,,,,,,
,00:35:44,96,,,,,,,,,
,00:35:45,97,,,,,,,,,
,00:35:46,98,,,,,,,,,
